"Id";"Designator";"Package";"Quantity";"Designation";"Supplier and ref";
1;"D2";"D_0402_1005Metric";1;"D_Schottky";;;
2;"U1";"Linear_Technologies----0";1;"LTC7124EUDDPBF";;;
3;"J1";"PinSocket_2x20_P2.54mm_Vertical_Centered_Anchor";1;"GPIO_CONNECTOR";;;
4;"H1,H2,H3,H4";"MountingHole_2.7mm_M2.5_uHAT_RPi";4;"MountingHole";;;
5;"C1";"C_Radial_D5.0mm_H11.0mm_P2.00mm";1;"47u";;;
6;"C2";"CP_Elec_4x5.4";1;"2.2u";;;
7;"C3,C4";"C_1206_3216Metric";2;"0.1u";;;
8;"C5,C7";"C_1206_3216Metric";2;"22p";;;
9;"C6,C8";"C_Radial_D6.3mm_H11.0mm_P2.50mm";2;"100u";;;
10;"C9";"C_1206_3216Metric";1;"1u";;;
11;"D1";"D_0603_1608Metric";1;"B220";;;
12;"D3,D4,D5";"LED_0603_1608Metric";3;"LED";;;
13;"IC1";"DIP794W53P254L1016H394Q8N";1;"LT1368CN8#PBF";;;
14;"J2";"BarrelJack_Horizontal";1;"Barrel_Jack";;;
15;"L1";"L_1812_4532Metric";1;"1.5u";;;
16;"L2";"L_1812_4532Metric";1;"3.3u";;;
17;"Q1,Q2,Q3";"TO127P254X732-3";3;"2N2222";;;
18;"R1,R3";"R_0603_1608Metric";2;"619k";;;
19;"R2";"R_0603_1608Metric";1;"84.5k";;;
20;"R4";"R_0603_1608Metric";1;"137k";;;
21;"R5,R14";"R_0603_1608Metric";2;"100k";;;
22;"R6";"R_Axial_DIN0309_L9.0mm_D3.2mm_P2.54mm_Vertical";1;"1.7";;;
23;"R7";"R_Axial_DIN0309_L9.0mm_D3.2mm_P2.54mm_Vertical";1;"3.3";;;
24;"R8";"R_LDR_10x8.5mm_P7.6mm_Vertical";1;"LDR03";;;
25;"R9,R10";"R_1206_3216Metric";2;"2k";;;
26;"R11,R12";"R_0805_2012Metric";2;"7.5k";;;
27;"R13";"R_0805_2012Metric";1;"100";;;
28;"R15,R16,R17,R18,R19,R20,R21,R22,R23";"R_0603_1608Metric";9;"330";;;
29;"U2";"LFCSP-WD-10-1EP_3x3mm_P0.5mm_EP1.64x2.38mm";1;"AD5272BCP";;;
