EESchema Schematic File Version 4
EELAYER 30 0
EELAYER END
$Descr A4 11693 8268
encoding utf-8
Sheet 2 4
Title "Power Supply Submodule"
Date "2021-05-30"
Rev "1.0"
Comp "EEE3088F Group 56"
Comment1 ""
Comment2 ""
Comment3 ""
Comment4 ""
$EndDescr
$Comp
L eee3088f-group56-rescue:LTC7124EUDDPBF-eec U1
U 1 1 60B3F1E2
P 4750 2950
AR Path="/60B3F1E2" Ref="U1"  Part="1" 
AR Path="/60B3EA62/60B3F1E2" Ref="U1"  Part="1" 
F 0 "U1" H 5600 3215 50  0000 C CNN
F 1 "LTC7124EUDDPBF" H 5600 3124 50  0000 C CNN
F 2 "lib:Linear_Technologies----0" H 4750 3350 50  0001 L CNN
F 3 "http://www.linear.com/docs/58203" H 4750 3450 50  0001 L CNN
F 4 "IC" H 4750 3550 50  0001 L CNN "category"
F 5 "Buck Switching Regulator IC Positive Adjustable 0.6V 1 Output 3.5A 24-WFQFN Exposed Pad" H 4750 3650 50  0001 L CNN "digikey description"
F 6 "LTC7124EUDD#PBF-ND" H 4750 3750 50  0001 L CNN "digikey part number"
F 7 "yes" H 4750 3850 50  0001 L CNN "lead free"
F 8 "43875a1be745ff53" H 4750 3950 50  0001 L CNN "library id"
F 9 "Linear Technologies" H 4750 4050 50  0001 L CNN "manufacturer"
F 10 "584-LTC7124EUDDPBF" H 4750 4150 50  0001 L CNN "mouser part number"
F 11 "WFQFN24" H 4750 4250 50  0001 L CNN "package"
F 12 "yes" H 4750 4350 50  0001 L CNN "rohs"
F 13 "+125°C" H 4750 4450 50  0001 L CNN "temperature range high"
F 14 "-40°C" H 4750 4550 50  0001 L CNN "temperature range low"
	1    4750 2950
	1    0    0    -1  
$EndComp
Text GLabel 2300 1950 0    50   Input ~ 0
Vinput
$Comp
L pspice:CAP C1
U 1 1 60B40699
P 3450 3000
F 0 "C1" H 3628 3046 50  0000 L CNN
F 1 "47u" H 3628 2955 50  0000 L CNN
F 2 "Capacitor_THT:C_Radial_D5.0mm_H11.0mm_P2.00mm" H 3450 3000 50  0001 C CNN
F 3 "~" H 3450 3000 50  0001 C CNN
	1    3450 3000
	1    0    0    -1  
$EndComp
$Comp
L pspice:CAP C2
U 1 1 60B4161E
P 7350 2950
F 0 "C2" H 7528 2996 50  0000 L CNN
F 1 "2.2u" H 7528 2905 50  0000 L CNN
F 2 "Capacitor_SMD:CP_Elec_4x5.4" H 7350 2950 50  0001 C CNN
F 3 "~" H 7350 2950 50  0001 C CNN
	1    7350 2950
	1    0    0    -1  
$EndComp
$Comp
L pspice:CAP C3
U 1 1 60B428EC
P 3450 4000
F 0 "C3" H 3628 4046 50  0000 L CNN
F 1 "0.1u" H 3628 3955 50  0000 L CNN
F 2 "Capacitor_SMD:C_1206_3216Metric" H 3450 4000 50  0001 C CNN
F 3 "~" H 3450 4000 50  0001 C CNN
	1    3450 4000
	1    0    0    -1  
$EndComp
$Comp
L pspice:CAP C4
U 1 1 60B42EEF
P 7350 3950
F 0 "C4" H 7528 3996 50  0000 L CNN
F 1 "0.1u" H 7528 3905 50  0000 L CNN
F 2 "Capacitor_SMD:C_1206_3216Metric" H 7350 3950 50  0001 C CNN
F 3 "~" H 7350 3950 50  0001 C CNN
	1    7350 3950
	1    0    0    -1  
$EndComp
$Comp
L pspice:INDUCTOR L1
U 1 1 60B436D4
P 2950 4400
F 0 "L1" H 2950 4615 50  0000 C CNN
F 1 "1.5u" H 2950 4524 50  0000 C CNN
F 2 "Inductor_SMD:L_1812_4532Metric" H 2950 4400 50  0001 C CNN
F 3 "~" H 2950 4400 50  0001 C CNN
	1    2950 4400
	1    0    0    -1  
$EndComp
$Comp
L pspice:INDUCTOR L2
U 1 1 60B44661
P 8050 4400
F 0 "L2" H 8050 4615 50  0000 C CNN
F 1 "3.3u" H 8050 4524 50  0000 C CNN
F 2 "Inductor_SMD:L_1812_4532Metric" H 8050 4400 50  0001 C CNN
F 3 "~" H 8050 4400 50  0001 C CNN
	1    8050 4400
	1    0    0    -1  
$EndComp
$Comp
L Device:R R1
U 1 1 60B450ED
P 2400 4650
F 0 "R1" H 2470 4696 50  0000 L CNN
F 1 "619k" H 2470 4605 50  0000 L CNN
F 2 "Resistor_SMD:R_0603_1608Metric" V 2330 4650 50  0001 C CNN
F 3 "~" H 2400 4650 50  0001 C CNN
	1    2400 4650
	1    0    0    -1  
$EndComp
$Comp
L Device:R R2
U 1 1 60B45675
P 2400 5200
F 0 "R2" H 2470 5246 50  0000 L CNN
F 1 "84.5k" H 2470 5155 50  0000 L CNN
F 2 "Resistor_SMD:R_0603_1608Metric" V 2330 5200 50  0001 C CNN
F 3 "~" H 2400 5200 50  0001 C CNN
	1    2400 5200
	1    0    0    -1  
$EndComp
$Comp
L Device:R R3
U 1 1 60B45BA9
P 8550 4600
F 0 "R3" H 8620 4646 50  0000 L CNN
F 1 "619k" H 8620 4555 50  0000 L CNN
F 2 "Resistor_SMD:R_0603_1608Metric" V 8480 4600 50  0001 C CNN
F 3 "~" H 8550 4600 50  0001 C CNN
	1    8550 4600
	1    0    0    -1  
$EndComp
$Comp
L Device:R R4
U 1 1 60B46358
P 8550 5250
F 0 "R4" H 8620 5296 50  0000 L CNN
F 1 "137k" H 8620 5205 50  0000 L CNN
F 2 "Resistor_SMD:R_0603_1608Metric" V 8480 5250 50  0001 C CNN
F 3 "~" H 8550 5250 50  0001 C CNN
	1    8550 5250
	1    0    0    -1  
$EndComp
$Comp
L pspice:CAP C5
U 1 1 60B46A7B
P 1900 4650
F 0 "C5" H 2078 4696 50  0000 L CNN
F 1 "22p" H 2078 4605 50  0000 L CNN
F 2 "Capacitor_SMD:C_1206_3216Metric" H 1900 4650 50  0001 C CNN
F 3 "~" H 1900 4650 50  0001 C CNN
	1    1900 4650
	1    0    0    -1  
$EndComp
$Comp
L pspice:CAP C6
U 1 1 60B471A0
P 1400 4650
F 0 "C6" H 1578 4696 50  0000 L CNN
F 1 "100u" H 1578 4605 50  0000 L CNN
F 2 "Capacitor_THT:C_Radial_D6.3mm_H11.0mm_P2.50mm" H 1400 4650 50  0001 C CNN
F 3 "~" H 1400 4650 50  0001 C CNN
	1    1400 4650
	1    0    0    -1  
$EndComp
$Comp
L Device:R R6
U 1 1 60B47A60
P 950 4650
F 0 "R6" H 1020 4696 50  0000 L CNN
F 1 "1.7" H 1020 4605 50  0000 L CNN
F 2 "Resistor_THT:R_Axial_DIN0309_L9.0mm_D3.2mm_P2.54mm_Vertical" V 880 4650 50  0001 C CNN
F 3 "~" H 950 4650 50  0001 C CNN
	1    950  4650
	1    0    0    -1  
$EndComp
$Comp
L pspice:CAP C7
U 1 1 60B49490
P 9050 4650
F 0 "C7" H 9228 4696 50  0000 L CNN
F 1 "22p" H 9228 4605 50  0000 L CNN
F 2 "Capacitor_SMD:C_1206_3216Metric" H 9050 4650 50  0001 C CNN
F 3 "~" H 9050 4650 50  0001 C CNN
	1    9050 4650
	1    0    0    -1  
$EndComp
$Comp
L pspice:CAP C8
U 1 1 60B49BDA
P 9650 4650
F 0 "C8" H 9828 4696 50  0000 L CNN
F 1 "100u" H 9828 4605 50  0000 L CNN
F 2 "Capacitor_THT:C_Radial_D6.3mm_H11.0mm_P2.50mm" H 9650 4650 50  0001 C CNN
F 3 "~" H 9650 4650 50  0001 C CNN
	1    9650 4650
	1    0    0    -1  
$EndComp
$Comp
L Device:R R7
U 1 1 60B4A467
P 10250 4600
F 0 "R7" H 10320 4646 50  0000 L CNN
F 1 "3.3" H 10320 4555 50  0000 L CNN
F 2 "Resistor_THT:R_Axial_DIN0309_L9.0mm_D3.2mm_P2.54mm_Vertical" V 10180 4600 50  0001 C CNN
F 3 "~" H 10250 4600 50  0001 C CNN
	1    10250 4600
	1    0    0    -1  
$EndComp
Text GLabel 2350 6500 0    50   Input ~ 0
GND
Text GLabel 2050 3900 2    50   Input ~ 0
5Vcc
Text GLabel 10650 4400 2    50   Input ~ 0
3.3Vcc
Wire Wire Line
	2300 1950 4300 1950
Wire Wire Line
	4300 1950 4300 2500
Wire Wire Line
	4300 2950 4850 2950
Wire Wire Line
	4850 3050 4300 3050
Wire Wire Line
	4300 3050 4300 2950
Connection ~ 4300 2950
Wire Wire Line
	4850 3250 4300 3250
Wire Wire Line
	4300 3250 4300 3050
Connection ~ 4300 3050
Wire Wire Line
	4850 3350 4300 3350
Wire Wire Line
	4300 3350 4300 3250
Connection ~ 4300 3250
Wire Wire Line
	3450 2750 3450 2500
Wire Wire Line
	3450 2500 4300 2500
Connection ~ 4300 2500
Wire Wire Line
	4300 2500 4300 2950
Wire Wire Line
	6350 2950 6750 2950
Wire Wire Line
	6750 2950 6750 2500
Wire Wire Line
	6750 2500 7350 2500
Wire Wire Line
	7350 2500 7350 2700
Wire Wire Line
	6350 3150 6750 3150
Wire Wire Line
	6750 3150 6750 3050
Connection ~ 6750 2950
Wire Wire Line
	6350 3250 6750 3250
Wire Wire Line
	6750 3250 6750 3150
Connection ~ 6750 3150
Wire Wire Line
	6350 3050 6750 3050
Connection ~ 6750 3050
Wire Wire Line
	6750 3050 6750 2950
Wire Wire Line
	4850 3850 4300 3850
Wire Wire Line
	4300 3850 4300 3600
Wire Wire Line
	4300 3600 3450 3600
Wire Wire Line
	3450 3600 3450 3750
Wire Wire Line
	6350 3850 6750 3850
Wire Wire Line
	6750 3850 6750 3600
Wire Wire Line
	6750 3600 7350 3600
Wire Wire Line
	7350 3600 7350 3700
Wire Wire Line
	4850 4050 4300 4050
Wire Wire Line
	4300 4050 4300 4150
Wire Wire Line
	4300 4400 3450 4400
Wire Wire Line
	3450 4250 3450 4400
Connection ~ 3450 4400
Wire Wire Line
	3450 4400 3200 4400
Wire Wire Line
	4850 4150 4300 4150
Connection ~ 4300 4150
Wire Wire Line
	4300 4150 4300 4400
Wire Wire Line
	6350 4050 6750 4050
Wire Wire Line
	6750 4050 6750 4150
Wire Wire Line
	6750 4400 7350 4400
Wire Wire Line
	6350 4150 6750 4150
Connection ~ 6750 4150
Wire Wire Line
	6750 4150 6750 4400
Wire Wire Line
	7350 4200 7350 4400
Connection ~ 7350 4400
Wire Wire Line
	7350 4400 7800 4400
Wire Wire Line
	2700 4400 2400 4400
Wire Wire Line
	950  4400 950  4500
Connection ~ 1400 4400
Wire Wire Line
	1400 4400 950  4400
Connection ~ 1900 4400
Wire Wire Line
	1900 4400 1400 4400
Wire Wire Line
	950  4400 950  3900
Connection ~ 950  4400
Wire Wire Line
	1900 4900 2400 4900
Wire Wire Line
	2400 4900 2400 4800
Wire Wire Line
	2400 5050 2400 4900
Connection ~ 2400 4900
Wire Wire Line
	2400 4500 2400 4400
Connection ~ 2400 4400
Wire Wire Line
	2400 4400 1900 4400
Wire Wire Line
	4850 4350 4600 4350
Wire Wire Line
	4600 4350 4600 4900
Wire Wire Line
	4600 4900 2400 4900
Wire Wire Line
	950  4800 950  5700
Wire Wire Line
	950  5700 1400 5700
Wire Wire Line
	2400 5350 2400 5700
Connection ~ 2400 5700
Wire Wire Line
	1400 4900 1400 5700
Connection ~ 1400 5700
Wire Wire Line
	1400 5700 2400 5700
Wire Wire Line
	3450 3250 3450 3350
Wire Wire Line
	3450 3350 4000 3350
Wire Wire Line
	4000 3350 4000 5700
Wire Wire Line
	8300 4400 8550 4400
Wire Wire Line
	10650 4400 10250 4400
Connection ~ 9050 4400
Connection ~ 9650 4400
Wire Wire Line
	9650 4400 9050 4400
Wire Wire Line
	10250 4450 10250 4400
Connection ~ 10250 4400
Wire Wire Line
	10250 4400 9650 4400
Wire Wire Line
	8550 4450 8550 4400
Connection ~ 8550 4400
Wire Wire Line
	8550 4400 9050 4400
Wire Wire Line
	8550 4750 8550 4950
Wire Wire Line
	6350 4350 6550 4350
Wire Wire Line
	6550 4350 6550 4950
Wire Wire Line
	6550 4950 8550 4950
Connection ~ 8550 4950
Wire Wire Line
	8550 4950 8550 5100
Wire Wire Line
	8550 4950 9050 4950
Wire Wire Line
	9050 4950 9050 4900
Wire Wire Line
	10250 4750 10250 5700
Wire Wire Line
	10250 5700 9650 5700
Connection ~ 4000 5700
Wire Wire Line
	4000 5700 4000 6500
Wire Wire Line
	9650 4900 9650 5700
Connection ~ 9650 5700
Wire Wire Line
	9650 5700 8550 5700
Wire Wire Line
	2350 6500 4000 6500
Wire Wire Line
	2400 5700 4000 5700
Wire Wire Line
	8550 5400 8550 5700
Connection ~ 8550 5700
Wire Wire Line
	8550 5700 7050 5700
Wire Wire Line
	7350 3200 7350 3350
Wire Wire Line
	7350 3350 7050 3350
Wire Wire Line
	7050 3350 7050 5700
Connection ~ 7050 5700
Wire Wire Line
	7050 5700 6350 5700
Wire Wire Line
	4850 5150 4600 5150
Wire Wire Line
	4600 5150 4600 5700
Connection ~ 4600 5700
Wire Wire Line
	4600 5700 4000 5700
Wire Wire Line
	6350 4650 6350 4750
Wire Wire Line
	6350 4850 6350 4750
Connection ~ 6350 4750
Wire Wire Line
	6350 4850 6350 4950
Connection ~ 6350 4850
Wire Wire Line
	6350 4950 6350 5050
Connection ~ 6350 4950
Wire Wire Line
	6350 5150 6350 5700
Connection ~ 6350 5700
Wire Wire Line
	6350 5700 4600 5700
Wire Wire Line
	6350 5150 6350 5050
Connection ~ 6350 5150
Connection ~ 6350 5050
$Comp
L Device:R R5
U 1 1 60B8EB91
P 6650 3350
F 0 "R5" V 6443 3350 50  0000 C CNN
F 1 "100k" V 6534 3350 50  0000 C CNN
F 2 "Resistor_SMD:R_0603_1608Metric" V 6580 3350 50  0001 C CNN
F 3 "~" H 6650 3350 50  0001 C CNN
	1    6650 3350
	0    1    1    0   
$EndComp
Wire Wire Line
	6350 3350 6500 3350
Wire Wire Line
	6800 3350 7050 3350
Connection ~ 7050 3350
Wire Wire Line
	950  3900 2050 3900
$EndSCHEMATC
