(module "DIP794W53P254L1016H394Q8N" (layer F.Cu)
  (descr "N8 8-Lead PDIP")
  (tags "Integrated Circuit")
  (fp_text reference IC** (at 0 0) (layer F.SilkS)
    (effects (font (size 1.27 1.27) (thickness 0.254)))
  )
  (fp_text user %R (at 0 0) (layer F.Fab)
    (effects (font (size 1.27 1.27) (thickness 0.254)))
  )
  (fp_text value "DIP794W53P254L1016H394Q8N" (at 0 0) (layer F.SilkS) hide
    (effects (font (size 1.27 1.27) (thickness 0.254)))
  )
  (fp_line (start -4.944 -5.33) (end 4.944 -5.33) (layer F.CrtYd) (width 0.05))
  (fp_line (start 4.944 -5.33) (end 4.944 5.33) (layer F.CrtYd) (width 0.05))
  (fp_line (start 4.944 5.33) (end -4.944 5.33) (layer F.CrtYd) (width 0.05))
  (fp_line (start -4.944 5.33) (end -4.944 -5.33) (layer F.CrtYd) (width 0.05))
  (fp_line (start -3.429 -5.08) (end 3.429 -5.08) (layer F.Fab) (width 0.1))
  (fp_line (start 3.429 -5.08) (end 3.429 5.08) (layer F.Fab) (width 0.1))
  (fp_line (start 3.429 5.08) (end -3.429 5.08) (layer F.Fab) (width 0.1))
  (fp_line (start -3.429 5.08) (end -3.429 -5.08) (layer F.Fab) (width 0.1))
  (fp_line (start -3.429 -3.81) (end -2.159 -5.08) (layer F.Fab) (width 0.1))
  (fp_line (start -4.535 -5.08) (end 3.429 -5.08) (layer F.SilkS) (width 0.2))
  (fp_line (start -3.429 5.08) (end 3.429 5.08) (layer F.SilkS) (width 0.2))
  (pad 1 thru_hole rect (at -3.969 -3.81) (size 1.133 1.133) (drill 0.733) (layers *.Cu *.Mask))
  (pad 2 thru_hole circle (at -3.969 -1.27) (size 1.133 1.133) (drill 0.733) (layers *.Cu *.Mask))
  (pad 3 thru_hole circle (at -3.969 1.27) (size 1.133 1.133) (drill 0.733) (layers *.Cu *.Mask))
  (pad 4 thru_hole circle (at -3.969 3.81) (size 1.133 1.133) (drill 0.733) (layers *.Cu *.Mask))
  (pad 5 thru_hole circle (at 3.969 3.81) (size 1.133 1.133) (drill 0.733) (layers *.Cu *.Mask))
  (pad 6 thru_hole circle (at 3.969 1.27) (size 1.133 1.133) (drill 0.733) (layers *.Cu *.Mask))
  (pad 7 thru_hole circle (at 3.969 -1.27) (size 1.133 1.133) (drill 0.733) (layers *.Cu *.Mask))
  (pad 8 thru_hole circle (at 3.969 -3.81) (size 1.133 1.133) (drill 0.733) (layers *.Cu *.Mask))
  (model LT1368CN8#PBF.stp
    (at (xyz 0 0 0))
    (scale (xyz 1 1 1))
    (rotate (xyz 0 0 0))
  )
)
